{
  "$schema": "https://docs.renovatebot.com/renovate-schema.json",
  "extends": [
    "local>hpc-registry/renovate-config",
    "local>hpc-registry/renovate-config//managers/dockerfile.json5",
    ":assignAndReview(mminar)",
    ":automergeLinters",
    ":automergePatch",
    ":automergeDigest",
  ],
}
